{
   "name":"***",
   "surname":"***",
   "job":"OWNER",
   "email":"***",
   "telephones":[
      {
         "number":"1634164579",
         "type":"LANDLINE"
      },
      {
         "number":"1634164579",
         "type":"COMMERCIAL"
      }
   ],
   "tradeName":"***",
   "companyName":"***",
   "cnpj":"***",
   "address":{
      "streetName":"Rua Ambrósio dos Santos",
      "number":"100",
      "neighbourhood":"Planalto Paraíso",
      "zipcode":"13562000",
      "latitude":-22.0100118,
      "longitude":-47.9105253,
      "city":{
         "id":3548906
      }
   },
   "deliveryRadius":"16",
   "openingHours":[
      {
         "period":"MONDAY_TO_FRIDAY",
         "opening":"08:00",
         "closing":"18:00"
      }
   ],
   "expirationDate":10,
   "productTypes":[
      "BASIC_MATERIAL",
      "STEEL_AND_IRON",
      "BRICK_AND_BLOCK",
      "WOOD",
      "HYDRAULIC",
      "ELECTRICAL",
      "TILE_AND_COVER",
      "PAINT",
      "WINDOWS_AND_DOORS",
      "FLOOR_AND_COATING",
      "EQUIPMENT_RENT"
   ],
   "paymentMethods":[
      "CREDIT_CARD",
      "DEBIT_CARD",
      "CASH",
      "CHECK",
      "BANK_TRANSFER",
      "BANK_SLIP",
      "CONSTRUCARD"
   ],
   "minimumOrder":100,
   "paymentSettings":[
      {
         "operation":"DISCOUNT",
         "paymentMethod":"DEBIT_CARD",
         "percentage":"2"
      },
      {
         "operation":"DISCOUNT",
         "paymentMethod":"CASH",
         "percentage":"5"
      },
      {
         "operation":"DISCOUNT",
         "paymentMethod":"BANK_TRANSFER",
         "percentage":"1"
      }
   ]
}